; Engine configuration file.
; It's best edited using the editor UI and not directly,
; since the parameters that go here are not all obvious.
;
; Format:
;   [section] ; section goes between []
;   param=value ; assign values to parameters

config_version=5

[application]

config/name="Bits4Godot4"
config/description="Various useful resources I've created for use in Godot 4 projects. licensed under MIT.
Get it all here:
https://codeberg.org/unfa/Bits4Godot4
- unfa"
run/main_scene="res://Bits4Godot4.tscn"
config/features=PackedStringArray("4.0", "Vulkan Clustered")
boot_splash/image="res://icon.png"
config/icon="res://icon.svg"
